~
…
Next, we run cross validation for a grid of neighbours ranging from 1 to 20.

```r
grid_vals <- tibble::tibble(neighbors = seq(from = 1, to = 20, by = 1))

diabetes_results <- diabetes_wkflw |>
  tune::tune_grid(resamples = diabetes_cv, grid = grid_vals) 

diabetes_results |>
  tune::collect_metrics() 
```

```
## # A tibble: 40 × 7
##    neighbors .metric  .estimator  mean     n std_err .config              
##        <dbl> <chr>    <chr>      <dbl> <int>   <dbl> <chr>                
##  1         1 accuracy binary     0.698     5 0.00808 Preprocessor1_Model01
##  2         1 roc_auc  binary     0.664     5 0.00772 Preprocessor1_Model01
##  3         2 accuracy binary     0.698     5 0.00808 Preprocessor1_Model02
##  4         2 roc_auc  binary     0.724     5 0.0193  Preprocessor1_Model02
##  5         3 accuracy binary     0.698     5 0.00808 Preprocessor1_Model03
##  6         3 roc_auc  binary     0.745     5 0.0227  Preprocessor1_Model03
##  7         4 accuracy binary     0.698     5 0.00808 Preprocessor1_Model04
##  8         4 roc_auc  binary     0.758     5 0.0204  Preprocessor1_Model04
##  9         5 accuracy binary     0.721     5 0.00663 Preprocessor1_Model05
## 10         5 roc_auc  binary     0.764     5 0.0197  Preprocessor1_Model05
## # … with 30 more rows
```
…
